<svg width="24" height="24" viewBox="0 0 24 24" fill="none" xmlns="http://www.w3.org/2000/svg">
<path fill-rule="evenodd" clip-rule="evenodd" d="M24 4.36764C23.1182 4.76923 22.1687 5.04081 21.1727 5.16215C22.1898 4.5381 22.9702 3.54857 23.3379 2.36981C22.3856 2.94763 21.3333 3.368 20.2092 3.59336C19.3133 2.6125 18.0328 2 16.6156 2C13.8982 2 11.6936 4.26074 11.6936 7.04875C11.6936 7.44456 11.7359 7.82882 11.8204 8.19863C7.72812 7.98772 4.10072 5.97978 1.67072 2.92163C1.2467 3.66992 1.0044 4.5381 1.0044 5.46262C1.0044 7.21343 1.87357 8.75912 3.19493 9.66486C2.38915 9.6403 1.62846 9.41062 0.96355 9.03503V9.09715C0.96355 11.5442 2.66103 13.5854 4.91495 14.0477C4.5022 14.1661 4.06691 14.2254 3.61754 14.2254C3.30058 14.2254 2.99067 14.195 2.69061 14.1358C3.31749 16.1408 5.13471 17.6013 7.29002 17.6403C5.60521 18.9953 3.48089 19.8028 1.17485 19.8028C0.777602 19.8028 0.384575 19.7797 0 19.7335C2.17926 21.1636 4.76845 22 7.54781 22C16.6057 22 21.5573 14.3077 21.5573 7.63525C21.5573 7.41567 21.5531 7.1961 21.5446 6.98086C22.5068 6.26869 23.3421 5.38028 24 4.36764" fill="#263238"/>
</svg>
